31 0
46 0
66 0
7 1
128 1
129 1
37 1
57 1
68 1
75 1
94 1
108 1
177 1
36 1
113 1
141 1
162 1
185 1
67 2
163 2
174 2
179 2
15 3
41 3
81 3
109 3
118 3
124 3
39 3
178 3
14 4
21 4
51 5
77 5
91 5
95 5
173 5
82 5
63 6
159 6
80 6
172 6
110 6
1 7
26 7
16 8
73 8
125 8
131 8
19 9
70 9
64 9
83 10
142 10
148 10
169 10
183 10
184 10
42 10
45 10
145 10
44 10
149 10
157 10
111 10
130 10
139 10
85 11
3 11
78 11
89 12
4 12
116 13
6 13
2 14
140 14
158 14
23 14
22 15
52 15
152 15
180 15
24 16
54 16
93 17
100 17
105 17
55 17
58 17
136 17
167 17
186 17
40 17
101 17
156 17
176 17
48 17
84 17
87 17
117 17
135 17
153 17
144 17
71 18
106 18
119 18
127 18
134 18
62 18
138 18
8 19
20 19
27 20
143 20
154 20
164 20
30 21
11 21
60 22
175 22
56 22
59 22
49 22
86 23
61 23
12 24
79 24
90 24
161 24
166 24
13 25
92 25
29 26
104 26
132 26
47 26
107 26
122 26
17 27
150 27
10 27
32 28
50 28
65 29
69 29
115 29
120 29
137 29
165 29
182 29
38 29
126 29
168 29
97 29
98 29
123 29
133 29
35 29
151 29
88 29
18 30
33 30
102 30
160 30
181 30
155 30
25 31
9 31
28 32
103 32
112 32
146 32
147 32
74 33
76 33
96 33
171 33
5 33
43 33
72 33
99 34
121 34
170 34
53 34
114 34
34 34
